{"result":[{"articleId":455,"imgId":455,"channelId":"3","channelName":"台中腔","mainTitle":"韓式炸雞特輯：連鎖品牌和地方名店，不變的美味","mainText":"<p>&nbsp;</p><p>&nbsp;&nbsp;&nbsp;&nbsp;&nbsp;&nbsp;&nbsp; 看韓劇、追韓團一直是近年來台灣人最愛的休閒娛樂之一，在長期接觸韓國影視文化的影響下，相信有很多人跟小編一樣對韓國的飲食文化也開始產生興趣了吧？像是韓國海苔、泡菜、還有小編最愛的辣炒年糕，但在這些傳統韓風美食之外，這篇文章要介紹給各位讀者的是這幾年最有代表性的韓國美食：韓式炸雞。</p><p>&nbsp;</p><h4><strong>經典韓式炸雞連鎖品牌：起家雞</strong></h4><p>&nbsp;</p><figure class=\"image\"><img src=\"./images/imgSingle-1659083744337.jpg\"></figure><p><span class=\"text-small\"><i>圖：起家雞 Facebook</i></span></p><p>&nbsp;</p><p>&nbsp;&nbsp;&nbsp;&nbsp;&nbsp;&nbsp;&nbsp; 起家雞算是最早打進台灣市場的韓式炸雞品牌，有著響亮的名聲和十足的品牌辨識度，分店也越開越多，光是在台中市就有著九間分店，其中逢甲店跟勤美店則是專門提供內用的內用專門店。</p><p>&nbsp;</p><figure class=\"image\"><img src=\"./images/imgSingle-1659083754557.jpg\"></figure><p><span class=\"text-small\"><i>圖：起家雞 Facebook</i></span></p><p>&nbsp;</p><p>&nbsp;&nbsp;&nbsp;&nbsp;&nbsp;&nbsp;&nbsp; 小編覺得起家雞最厲害的地方就是他們的各種創意口味，除了招牌的洋釀醬汁炸雞之外，起家雞還開發出了青蔥、黃金起司、還有最新的松露芥末風味，不管你要找刺激、找柔順、找奢華，在起家雞都能找到你要的口味，也難怪起家雞會這麼受大家喜愛。</p><p>&nbsp;</p><figure class=\"image\"><img src=\"./images/imgSingle-1659083762103.jpg\"></figure><p><span class=\"text-small\"><i>圖：起家雞 Facebook</i></span></p><p>&nbsp;</p><p><strong>店家資訊｜</strong></p><p>分店資訊：https://www.cheogajip.com.tw/store/</p><p>Facebook：https://www.facebook.com/cheogajip/</p><p>&nbsp;</p><h4><strong>韓國No.1連鎖品牌：NeNe Chicken Taiwan</strong></h4><p>&nbsp;</p><p>&nbsp;&nbsp;&nbsp;&nbsp;&nbsp;&nbsp;&nbsp; 說到連鎖炸雞品牌，那就不能不提NeNe Chiken，雖然這個品牌創立的比起家雞晚、進來台灣的時間也比較晚，但在全台灣也已經有36間分店了，更厲害的是他在韓國其實是第一大的連鎖炸雞品牌，有百間門市遍布全國，在世界各國也都能看到牠們的蹤跡，很不簡單吧！</p><p>&nbsp;</p><figure class=\"image\"><img src=\"./images/imgSingle-1659083775333.jpg\"></figure><p><span class=\"text-small\"><i>圖：NeNe Chicken Taiwan Facebook</i></span></p><p>&nbsp;</p><p>&nbsp;&nbsp;&nbsp;&nbsp;&nbsp;&nbsp;&nbsp; NeNe家的炸雞口味裡面，最有特色的就是他們的「青陽美乃滋炸雞」了，做法是把韓風的青陽辣椒加進美乃滋中，並搭配新鮮洋蔥，讓炸雞呈現甜、辣、嗆、鮮交融的絕妙口感。除了青陽美乃滋之外，小編也很喜歡他們家的「初雪起司炸雞」，把細緻的起司粉撒在炸雞上，光看就是一幅美麗構圖，再加上炸雞香和起司奶香的結合，完全是起司控難以拒絕的誘惑。</p><p>&nbsp;</p><figure class=\"image\"><img src=\"./images/imgSingle-1659083781974.jpg\"></figure><p><span class=\"text-small\"><i>圖：NeNe Chicken Taiwan Facebook</i></span></p><p>&nbsp;</p><p><strong>店家資訊｜</strong></p><p>分店資訊：https://nenechicken.com.tw/%e5%88%86%e5%ba%97%e8%b3%87%e8%a8%8a/</p><p>Facebook：https://www.facebook.com/NENEChickenTaiwan/</p><p>&nbsp;</p><h4><strong>台中的韓式料理連鎖餐廳：KATZ&nbsp;卡司複合式餐廳</strong></h4><p>&nbsp;</p><figure class=\"image\"><img src=\"./images/imgSingle-1659083798241.jpg\"></figure><p><span class=\"text-small\"><i>圖：KATZ 卡司 Facebook</i></span></p><p>&nbsp;</p><p>&nbsp;&nbsp;&nbsp;&nbsp;&nbsp;&nbsp;&nbsp; 接下來要介紹的這間KATZ卡司，是台中在地的韓式料理連鎖餐廳，在美術園道一帶和大魯閣新時代內都有分店，如果你想在跟朋友聚餐完後還能在附近散步逛街的話，卡司會非常適合你喔。</p><p>&nbsp;</p><figure class=\"image\"><img src=\"./images/imgSingle-1659083809459.jpg\"></figure><p><span class=\"text-small\"><i>圖：KATZ 卡司 Facebook</i></span></p><p>&nbsp;</p><p>&nbsp;&nbsp;&nbsp;&nbsp;&nbsp;&nbsp;&nbsp; 卡司的特色在於它是一間韓式料理複合式餐廳，除了韓式炸雞口味多樣（有咖哩、檸檬椒鹽、蒜香奶油等特殊風味）之外，也有超多韓式料理和創意料理可以選擇，如果怕吃得太單調，那卡司會是一個很好的選項。</p><p>&nbsp;</p><p><strong>店家資訊（美術園道店）｜</strong></p><p>地址：臺中市西區五權西四街110號</p><p>電話：04 2372 3055</p><p>營業時間：11:30-22:00</p><p>Facebook：https://www.facebook.com/KATZ.Life1</p><p>&nbsp;</p><h4><strong>一中街發跡攤販，體驗韓式小吃魅力：韓金量</strong></h4><p>&nbsp;</p><p>&nbsp;&nbsp;&nbsp;&nbsp;&nbsp;&nbsp;&nbsp; 前面介紹了那麼多餐廳式的韓式炸雞，好吃歸好吃，但價格總是比較高一點，如果你跟小編一樣月底快吃土、卻又很想吃韓式炸雞解饞的話，這間韓金量就是我們的好朋友啦！</p><p>&nbsp;</p><figure class=\"image\"><img src=\"./images/imgSingle-1659083844377.jpg\"></figure><p><span class=\"text-small\"><i>圖：韓金量 Facebook</i></span></p><p>&nbsp;</p><p>&nbsp;&nbsp;&nbsp;&nbsp;&nbsp;&nbsp;&nbsp; 韓金量從一中街商區發跡，用攤販的形式賣著好吃又平價的韓國小吃，不用一百元就能吃到一份毫不馬虎的韓式炸雞，其他品項如炸年糕、薯條、甜不辣等等也都是銅板價就能輕鬆買到，買份紙盒裝的韓式炸雞、再拿著逛逛一中街，正能好好體驗獨特的街邊風情。</p><p>&nbsp;</p><p><strong>店家資訊｜</strong></p><p>地址：臺中市臺中市北區三民路三段164巷口</p><p>電話：0975 673 092</p><p>營業時間：12:00-22:30</p><p>Facebook：https://www.facebook.com/hanjinliangoppachicken.kr/</p><p>&nbsp;</p><h4><strong>人氣名店，韓國老闆的正宗韓式風味：朴大哥的韓式炸雞</strong></h4><p>&nbsp;</p><figure class=\"image\"><img src=\"./images/imgSingle-1659083858410.jpg\"></figure><p><span class=\"text-small\"><i>圖：朴大哥的韓式炸雞 Facebook</i></span></p><p>&nbsp;</p><p>&nbsp;&nbsp;&nbsp;&nbsp;&nbsp;&nbsp;&nbsp; 既然都提到一中街了，當然也要說說台中的另一個人氣商圈──逢甲商圈囉，朴大哥的韓式炸雞就正是幾年前逢甲商圈裡最火熱的店家，那時候搭著「來自星星的你」韓劇熱潮，朴大哥的店門口永遠都有排隊人潮，排隊的人多到擠滿店門口小巷，讓隔壁店家都難以營業，就知道當初的人氣有多誇張了。</p><p>&nbsp;</p><p>&nbsp;&nbsp;&nbsp;&nbsp;&nbsp;&nbsp;&nbsp; 而在熱潮退去後，朴大哥的韓式炸雞到現在仍然是逢甲的人氣名店，之所以沒有像其他爆紅名店一樣在熱潮過後就倒閉，靠的就是韓國老闆朴大哥本人對韓式口味的堅持，讓這間店長期下來培養了一群忠實顧客。從菜單就可以看到，朴大哥沒有選擇做太多五花八門的口味，而是把基礎的紅醬跟黑醬做到最好，紅醬帶甜味、黑醬則帶有鹹味，這兩種口味加上辣就是朴大哥常設菜單的全部，這種專注做好少數產品的風格也讓小編想到一些日本名店的職人精神，都是憑著真功夫跟真本事征服顧客的厲害角色。</p><p>&nbsp;</p><figure class=\"image\"><img src=\"./images/imgSingle-1659083865308.jpg\"></figure><p><span class=\"text-small\"><i>圖：朴大哥的韓式炸雞 Facebook</i></span></p><p>&nbsp;</p><p><strong>店家資訊｜</strong></p><p>地址：臺中市西屯區逢甲路20巷28弄5號</p><p>電話：0988 328 178</p><p>營業時間：17:00-24:00</p><p>Facebook：https://www.facebook.com/PUDAGE/</p><p>&nbsp;</p><h4><strong>韓國老闆、豐原起家，平價街邊連鎖店：釜山崔炸雞</strong></h4><p>&nbsp;</p><p>&nbsp;&nbsp;&nbsp;&nbsp;&nbsp;&nbsp;&nbsp; 跟朴大哥一樣，釜山崔炸雞的老闆也是個來台打拚的韓國大哥，他一手創立的釜山崔炸雞從豐原起家，到現在已經擴張成全台超過30間分店的連鎖品牌了，而大部分分店都位於台中市各區，不管你是住在山線、海線、屯區的台中人，應該都能找的到離自己家不遠的一間釜山崔炸雞。</p><p>&nbsp;</p><figure class=\"image\"><img src=\"./images/imgSingle-1659083877475.jpg\"></figure><p><span class=\"text-small\"><i>圖：釜山崔炸雞 Facebook</i></span></p><p>&nbsp;</p><p>&nbsp;&nbsp;&nbsp;&nbsp;&nbsp;&nbsp;&nbsp; 釜山崔炸雞的經營方式是不提供內用的街邊店模式，省下來的內用營運成本也顯現在價格上，比起提供內用的其他連鎖店，釜山崔炸雞的價格更為經濟實惠。釜山崔的炸雞口味有甜醬、辣醬、辛辣醬、蒜味、醬油五種，只有甜醬跟兩種辣醬是帶辣度的，怕辣的朋友可以嘗試看看他們家的蒜味或醬油口味，淋上特製醬汁再撒上大量芝麻的炸雞真的讓人食欲max！</p><p>&nbsp;</p><figure class=\"image\"><img src=\"./images/imgSingle-1659083892034.jpg\"></figure><p><span class=\"text-small\"><i>圖：釜山崔炸雞 Facebook</i></span></p><p>&nbsp;</p><p><strong>店家資訊｜</strong></p><p>分店資訊：https://sites.google.com/view/korea-choi-chicken</p><p>Facebook：https://www.facebook.com/KOREA.CHOI.CHICKEN/?ref=page_internal</p><p>&nbsp;</p>","subText":"看韓劇、追韓團一直是近年來台灣人最愛的休閒娛樂之一，在長期接觸韓國影視文化的影響下，相信有很多人跟小編一樣對韓國的飲食文化也開始產生興趣了吧？像是韓國海苔、泡菜、還有小編最愛的辣炒年糕，但在這些傳統韓風美食之外，這篇文章要介紹給各位讀者的是這幾年最有代表性的韓國美食：韓式炸雞。","startDate":"2022-07-28T16:00:00.000Z","authorName":"Jason Hsu","imgSqu":"./images/imgSingle-1659083653570.jpg","imgRec":"./images/imgSingle-1659083660483.jpg","chLocation":"lifeC","chFront":"./images/imgSingle-1659083668301.jpg","chStatus":1,"homeFront":"./images/imgSingle-1659083674338.jpg","homeStatus":1,"link":null},{"articleId":450,"imgId":450,"channelId":"3","channelName":"台中腔","mainTitle":"七夕情人節該送什麼？手作禮物心意十足","mainText":"<div class=\"raw-html-embed\"></div><p>&nbsp;&nbsp;&nbsp;&nbsp;&nbsp;&nbsp;&nbsp; 「農曆七月好像要到了欸～」如果你的女朋友閒聊的時候無意間講出這句話，各位男友們會有甚麼反應呢？如果求生欲夠強的話就知道正確答案絕對不是鬼月鬼門開，因為對情侶來說，農曆七月有個更重要的日子，也就是東洋風情的情人節──「七夕情人節」。</p><p>&nbsp;</p><p>&nbsp;&nbsp;&nbsp;&nbsp;&nbsp;&nbsp;&nbsp; 今年的七夕情人節在8月4日，正是下下禮拜四，在距離情人節不到兩個禮拜時間的現在，不知道你是不是已經準備好要送給另一半的驚喜禮物了呢？對小編來說送禮物一直是一件很困難的事，花了好多時間挑的禮物對方卻沒那麼喜歡，這也讓人感到挫折，如果你跟小編一樣有這個挑禮物的困擾的話，由我們新一代編輯部挑選的「七夕情人節手作禮物」特輯就是你的救星啦，就讓我們一起看看有哪些送禮救星吧！</p><p>&nbsp;</p><h4><strong>金工手作：KINJO&nbsp;草山金工</strong></h4><p>&nbsp;</p><p>&nbsp;&nbsp;&nbsp;&nbsp;&nbsp;&nbsp;&nbsp; 貴金屬飾品一直都是送禮的萬年不敗款，而黃金又是貴金屬裡的代表性物件，從老派的純金首飾到當今年輕人喜愛的玫瑰金飾品，在飾品界無處不在的黃金，就正是這間「KINJO&nbsp;草山金工」的當家素材。</p><p>&nbsp;</p><figure class=\"image\"><img src=\"./images/imgSingle-1658479605370.jpg\"></figure><p><span class=\"text-small\"><i>圖：KINJO&nbsp;草山金工 Facebook</i></span></p><p>&nbsp;</p><p>&nbsp;&nbsp;&nbsp;&nbsp;&nbsp;&nbsp;&nbsp; KINJO取自台語慶祝的諧音，代表這個品牌的飾品是為了值得慶祝的每一天而做的，在官網上可以看到，他們家是以對戒為主要產品，有著各種設計、色調，除此之外還有情侶對戒課程，可以讓情侶們挑選自己喜歡的設計、參與整個製作、刻上彼此的姓名或生日等，在整個課程結束後，除了得到一組瑰麗的對戒之外，更能創造一段屬於彼此的難忘回憶。</p><p>&nbsp;</p><figure class=\"image\"><img src=\"./images/imgSingle-1658479612691.jpg\"></figure><p><span class=\"text-small\"><i>圖：KINJO&nbsp;草山金工 Facebook</i></span></p><p>&nbsp;</p><p><strong>店家資訊｜</strong></p><p>地址：臺中市臺灣大道3段251號南棟9F</p><p>電話：04 2258 2697</p><p>營業時間：11:00-22:00</p><p>Facebook：https://www.facebook.com/KinjoJewelry/</p><p>&nbsp;</p><h4><strong>金工手作：ART64專業銀飾設計訂製</strong></h4><p>&nbsp;</p><p>&nbsp;&nbsp;&nbsp;&nbsp;&nbsp;&nbsp;&nbsp; 但黃金的飾品想當然耳的並不便宜，如果送黃金對戒對你來說會爆預算的話，這間ART64可能就是你的另外一個優秀選擇。</p><p>&nbsp;</p><figure class=\"image\"><img src=\"./images/imgSingle-1658479620613.jpg\"></figure><p><span class=\"text-small\"><i>圖：ART64 Facebook</i></span></p><p>&nbsp;</p><p>&nbsp;&nbsp;&nbsp;&nbsp;&nbsp;&nbsp;&nbsp; ART64是以銀飾為主要商品，比起金飾的價格更實惠，而且產品項目也更加多元，從戒指、項鍊、到手環都可以在這裡找到。同樣的，ART64也有提供給情侶們參加的小班制教學課程，不管想要哪種銀製飾品都可以找到對應的課程，會是年輕情侶們的cp值首選喔！</p><p>&nbsp;</p><figure class=\"image\"><img src=\"./images/imgSingle-1658479627685.jpg\"></figure><p><span class=\"text-small\"><i>圖：ART64 Facebook</i></span></p><p>&nbsp;</p><p><strong>店家資訊｜</strong></p><p>地址：台中市東區復興路四段186號2F</p><p>電話：04 2255 2664</p><p>營業時間：（一至五）11:00-22:00，（六日）10:30-22:00</p><p>Facebook：https://www.facebook.com/ART64Taiwan</p><p>&nbsp;</p><h4><strong>花藝：奧爾薇丁Our Wedding Floral Studio</strong></h4><p>&nbsp;</p><p>&nbsp;&nbsp;&nbsp;&nbsp;&nbsp;&nbsp;&nbsp; 如果你覺得情人節送首飾有點太過正式、太過貴重的話，接下來要介紹的這兩間花藝店家或許值得你參考看看。雖然送花常常給人老套、不實用的印象，但我們推薦的兩間店家卻完全不是這樣，以乾燥花為主的製作方式，留住了花的美麗、又沒有鮮花的短暫，是能完美融入家中擺設的品項。</p><p>&nbsp;</p><figure class=\"image\"><img src=\"./images/imgSingle-1658479634950.jpg\"></figure><p><span class=\"text-small\"><i>圖：奧爾薇丁Our Wedding Floral Studio Facebook</i></span></p><p>&nbsp;</p><p>&nbsp;&nbsp;&nbsp;&nbsp;&nbsp;&nbsp;&nbsp; 奧爾薇丁在乾燥花的基礎上做出了更多變化，例如圖片中的這款「七夕玫瑰波波球小夜燈」，把乾燥花跟床頭小夜燈做結合，兼具溫暖、夢幻的感覺，又有著十足的功能性，且跟其他店家一樣，這款小夜燈也有提供手作課程，根據自己的心意調整乾燥花的內容，能讓這個禮物更有意義、更深刻。</p><p>&nbsp;</p><figure class=\"image\"><img src=\"./images/imgSingle-1658479642361.jpg\"></figure><p><span class=\"text-small\"><i>圖：奧爾薇丁Our Wedding Floral Studio Facebook</i></span></p><p>&nbsp;</p><p><strong>店家資訊｜</strong></p><p>地址：臺中市西區公正路140巷1弄7號</p><p>營業時間：10:00-16:00</p><p>Facebook：https://www.facebook.com/OurWedding.Bouquet/</p><p>&nbsp;</p><h4><strong>花藝：花草遊戲</strong></h4><p>&nbsp;</p><figure class=\"image\"><img src=\"./images/imgSingle-1658479651038.jpg\"></figure><p><span class=\"text-small\"><i>圖：花草遊戲 Facebook</i></span></p><p>&nbsp;</p><p>&nbsp;&nbsp;&nbsp;&nbsp;&nbsp;&nbsp;&nbsp; 花草遊戲跟奧爾薇丁一樣是以乾燥花做為主要產品，但作品的呈現還是有著不同的風格，花草遊戲的特色就跟他們的店名一樣，在乾燥花之外更加上了「草」的元素，讓作品在呈現上更具自然感和層次感，至於要怎麼讓花跟草兩種元素完美融合，又不至於變得雜亂無章，就要到店裡報名課程好好學習啦，想必下苦心學習後做出來的花藝作品也能讓收到的人感受到你的滿滿用心。</p><p>&nbsp;</p><figure class=\"image\"><img src=\"./images/imgSingle-1658479656912.jpg\"></figure><p><span class=\"text-small\"><i>圖：花草遊戲 Facebook</i></span></p><p>&nbsp;</p><p><strong>店家資訊｜</strong></p><p>地址：臺中市台中市西屯區朝富路280號</p><p>電話：04 2254 7581</p><p>營業時間：10:30-21:30</p><p>Facebook：https://www.facebook.com/florawithfun/</p><p>&nbsp;</p><h4><strong>皮件：森下樹 Sensiashu</strong></h4><p>&nbsp;</p><figure class=\"image\"><img src=\"./images/imgSingle-1658479666822.jpg\"></figure><p><span class=\"text-small\"><i>圖：森下樹 Facebook</i></span></p><p>&nbsp;</p><p>&nbsp;&nbsp;&nbsp;&nbsp;&nbsp;&nbsp;&nbsp; 最後，也是實用派的讀者們會最喜歡的主題，就是我們的皮件手作啦！第一間要介紹的是「森下樹Sensiashu」，他是一間以手工包款為主的店家，個是常見包款如郵差包、後背包、手提公事包、托特包等等在這裡都能找到，不管是設計還是皮革質感都在水準之上，誰說送包一定要送名牌，送這種親手製作的美包有時更能傳達自己的心意喔。</p><p>&nbsp;</p><figure class=\"image\"><img src=\"./images/imgSingle-1658479671817.jpg\"></figure><p><span class=\"text-small\"><i>圖：森下樹 Facebook</i></span></p><p>&nbsp;</p><p><strong>店家資訊｜</strong></p><p>地址：臺中市五權八街113號</p><p>電話：04 2372 9553</p><p>營業時間：13:00-21:00</p><p>Facebook：https://www.facebook.com/sensiashu/</p><p>&nbsp;</p><h4><strong>皮件：Be Two Leather Workshop</strong></h4><p>&nbsp;</p><figure class=\"image\"><img src=\"./images/imgSingle-1658479684824.jpg\"></figure><p><span class=\"text-small\"><i>圖：Be Two Leather Workshop Facebook</i></span></p><p>&nbsp;</p><p>&nbsp;&nbsp;&nbsp;&nbsp;&nbsp;&nbsp;&nbsp; Be Two同樣也是提供皮件手作課程的店家，而跟森下樹不同的地方在於，Be Two的產品更多是一些文創小物，例如AirPods收納袋、手搖引提袋等，在創意之餘也有著十足的生活實用性。</p><p>&nbsp;</p><figure class=\"image\"><img src=\"./images/imgSingle-1658479690189.jpg\"></figure><p><span class=\"text-small\"><i>圖：Be Two Leather Workshop Facebook</i></span></p><p>&nbsp;</p><p><strong>店家資訊｜</strong></p><p>地址：臺中市昇平街105號</p><p>電話：04 2301 1001</p><p>營業時間：10:00-18:00</p><p>Facebook：https://www.facebook.com/betwo2015/?ref=page_internal</p>","subText":"今年的七夕情人節在8月4日，正是下下禮拜四，在距離情人節不到兩個禮拜時間的現在，不知道你是不是已經準備好要送給另一半的驚喜禮物了呢？對小編來說送禮物一直是一件很困難的事，花了好多時間挑的禮物對方卻沒那麼喜歡，這也讓人感到挫折，如果你跟小編一樣有這個挑禮物的困擾的話，由我們新一代編輯部挑選的「七夕情人節手作禮物」特輯就是你的救星啦，就讓我們一起看看有哪些送禮救星吧！","startDate":"2022-07-21T16:00:00.000Z","authorName":"Jason Hsu","imgSqu":"./images/imgSingle-1658479515017.jpg","imgRec":"./images/imgSingle-1658479527512.jpg","chLocation":"lifeA","chFront":"./images/imgSingle-1658479534410.jpg","chStatus":1,"homeFront":"./images/imgSingle-1658479537481.jpg","homeStatus":1,"link":null},{"articleId":445,"imgId":445,"channelId":"3","channelName":"台中腔","mainTitle":"艷夏台中味 重新詮釋的麻芛美學","mainText":"<p>說起台中味，你想到的是什麼呢？別告訴我太陽餅、珍珠奶茶、東泉辣椒醬！最近在台中巷弄間、揹著包包的年輕人詢問的是，「那個<span style=\"color:rgb(5,5,5);\">麻芛</span>冰茶、<span style=\"color:rgb(5,5,5);\">麻芛</span>生乳捲要去哪裡買？」IG、LINE的美照分享，一張張都是透著淺綠、蘋果綠、葉綠色的神秘汁、神秘甜點。對外地人而言，它是不可思議的口味，而現今的不可思議成了：原來<span style=\"color:rgb(5,5,5);\">麻芛</span>可以這麼吃，好復古的文青感哪～～</p><p>&nbsp;</p><figure class=\"image\"><img src=\"./images/imgSingle-1657785851478.png\"></figure><p>&nbsp;</p><p>如果你也想嚐嚐不可思議的神秘新口味，跟著小編的腳步，一起逛進台中的南屯巷弄吧！</p><p>&nbsp;</p><figure class=\"image\"><img src=\"./images/imgSingle-1657785909016.jpg\"></figure><p><span style=\"background-color:white;color:rgb(5,5,5);\">林金生香是一家超過150年的老店，150年能屹立不倒，代表他們的糕餅口味真的很厲害呀！代代相傳，受到每代人的喜愛，如今已經傳到第五代了Σ(&nbsp;°&nbsp;△&nbsp;°)</span></p><p><span style=\"background-color:white;color:rgb(5,5,5);\">老店新創，裝潢揉和了古味與現代文青風，連</span><span style=\"color:rgb(5,5,5);\">麻芛</span><span style=\"background-color:white;color:rgb(5,5,5);\">這種老台中人的口味，也變出了新花招。</span></p><p><span style=\"background-color:white;color:rgb(5,5,5);\">貴婦級的下午茶，一定要試試</span><span style=\"color:rgb(5,5,5);\">麻芛</span><span style=\"background-color:white;color:rgb(5,5,5);\">拿鐵、</span><span style=\"color:rgb(5,5,5);\">麻芛</span><span style=\"background-color:white;color:rgb(5,5,5);\">果凍、</span><span style=\"color:rgb(5,5,5);\">麻芛</span><span style=\"background-color:white;color:rgb(5,5,5);\">戚風蛋糕，加上一小塊狀元糕，這種西式的下午茶融入台中特有的</span><span style=\"color:rgb(5,5,5);\">麻芛</span><span style=\"background-color:white;color:rgb(5,5,5);\">口味，走遍全球，大概只能在台中的巷弄間找得到。</span></p><figure class=\"image\"><img src=\"./images/imgSingle-1657785946315.png\"></figure><p><span style=\"color:rgb(5,5,5);\">麻芛</span><span style=\"background-color:white;color:rgb(5,5,5);\">苦中帶甘，是清涼退火的聖品，早期沒有冷氣時代，每到夏天，台中南屯家家戶戶幾乎都會準備</span><span style=\"color:rgb(5,5,5);\">麻芛</span><span style=\"background-color:white;color:rgb(5,5,5);\">冷湯，這種獨特的苦味，外地人第一時間幾乎很難接受，不過，林金生香改良了</span><span style=\"color:rgb(5,5,5);\">麻芛</span><span style=\"background-color:white;color:rgb(5,5,5);\">飲品，除了拿鐵、還有</span><span style=\"color:rgb(5,5,5);\">麻芛</span><span style=\"background-color:white;color:rgb(5,5,5);\">檸香氣泡飲，淡淡青草味帶點酸、帶點時尚香甜味，喝完會不會像喝茶一樣回甘呢？自己來試試看喔。</span></p><figure class=\"image\"><img src=\"./images/imgSingle-1657848812616.png\"></figure><p><span style=\"background-color:white;color:rgb(5,5,5);\">既然林金生香是台中百年老店，傳統的太陽餅當然也有</span><span style=\"color:rgb(5,5,5);\">麻芛</span><span style=\"background-color:white;color:rgb(5,5,5);\">口味。另外，特別推薦</span><span style=\"color:rgb(5,5,5);\">麻芛</span><span style=\"background-color:white;color:rgb(5,5,5);\">重乳酪蛋糕，融入麻薏的乳酪香，不會太甜膩，又很巧妙地將</span><span style=\"color:rgb(5,5,5);\">麻芛</span><span style=\"background-color:white;color:rgb(5,5,5);\">的苦味綜合掉，簡直是完美絕配！</span></p><p><span style=\"background-color:white;color:rgb(5,5,5);\">而上面點綴的半圓形餅乾，是店裡的特色「</span>收涎餅」，收涎餅是給四個月大容易流口水的小寶寶吃的，是台灣早期的古禮用餅乾，吃一回<span style=\"background-color:white;color:rgb(5,5,5);\">「</span>收涎餅」體驗一下四個月大的寶寶餅乾，試試看是不是會好吃到讓人不停流口水～～</p><figure class=\"image\"><img src=\"./images/imgSingle-1657785968714.png\"></figure><p><span style=\"background-color:white;color:rgb(5,5,5);\">百年老店的文化底蘊擺在那兒，不管是古色古香的裝潢，或是糕餅、體驗課程，走一趟，把滿滿的台中味刻印在腦子裡、留在唇齒間。</span></p><p><span style=\"background-color:white;color:rgb(5,5,5);\">店裡有體驗套餐，可以親手製作狀元糕，手作自己的台式下午茶，除了不缺席的麻薏口味之外，還有杏仁、芝麻、綠豆口味。狀元糕口感綿密，而且沒有想像中的乾澀，杏仁口味甚至吃得到顆粒，很多人吃了之後都會再買一盒回家，是林金生香受歡迎的伴手禮喔！</span></p><p>&nbsp;</p><p>&nbsp;</p><p><span style=\"background-color:white;color:rgb(5,5,5);\">店家資訊｜林金生香</span></p><p><span style=\"background-color:white;color:rgb(5,5,5);\">地址：</span><span style=\"background-color:white;color:rgb(32,33,36);\">408台中市南屯區萬和路一段59號</span></p><p><span style=\"background-color:white;color:rgb(5,5,5);\">電話：</span> 04-2389 9857</p><p><span style=\"background-color:white;color:rgb(5,5,5);\">營業時間：0830-1900</span></p><p><span style=\"background-color:white;color:rgb(5,5,5);\">官網：</span><a href=\"https://www.1866.com.tw/\"><span style=\"background-color:white;color:rgb(5,5,5);\"><u>https://www.1866.com.tw</u></span></a></p><p><span style=\"background-color:white;color:rgb(5,5,5);\">臉書：</span><a href=\"https://www.facebook.com/1866.tw/\"><span style=\"background-color:white;color:rgb(5,5,5);\"><u>https://www.facebook.com/1866.tw/</u></span></a></p><p>&nbsp;</p><p>&nbsp;</p><p><img src=\"./images/imgSingle-1657785569396.jpeg\" alt=\"一張含有 門, 開啟 的圖片\n\n自動產生的描述\"></p><p>一旦你來過青子，就會忍不住想介紹朋友再來一次！</p><p>隱身在台中南屯區南光路的青子，沒有明顯的招牌，一不注意就會錯過了，斑駁的木門門面，其實是台中新開張的甜品咖啡店。年輕的店齡卻有著老奶奶的傳承靈魂，老闆說，<span style=\"color:rgb(5,5,5);\">回家開一間有趣的店，替家鄉帶來更多活力，是他們返鄉時默默許下的願望。至於賣什麼呢？老闆想到了小時候經常吃奶奶準備的麻芛湯，有長輩疼愛孩子的味道、家鄉南屯的味道，也是台中人肯吃苦的共同記憶。</span></p><p><img src=\"./images/imgSingle-1657785568779.jpeg\" alt=\"一張含有 碗, 蔬菜, 室內, 醬料 的圖片\n\n自動產生的描述\"></p><p><span style=\"color:rgb(5,5,5);\">麻芛</span>是黃麻的嫩芽，日治時期，黃麻集中栽種在台中南屯一帶，用來做麻繩、麻布等，而嫩葉則可作為食用。</p><p>因為當時種植量多，所以，<span style=\"color:rgb(5,5,5);\">麻芛</span>也經常出現在家家戶戶的餐桌上，加上小魚乾地瓜、有的加入秋葵；有的會勾芡、有的煮清湯；有的熱熱喝、有的冰起來喝。</p><p>但因為料理、去除苦味的過程滿麻煩的，除了要手工去梗，更需要經過繁複的搓揉過程，加上塑膠繩取代麻繩、塑膠袋取代麻袋的經濟轉變，種植黃麻的大片農田也漸漸蓋起房子，吃<span style=\"color:rgb(5,5,5);\">麻芛</span>的文化隨著勢微，也越來越難買到一碗好喝的<span style=\"color:rgb(5,5,5);\">麻芛</span>湯。</p><figure class=\"image\"><img src=\"./images/imgSingle-1657785988413.png\"></figure><p>青子回鄉創業，以家鄉的<span style=\"color:rgb(5,5,5);\">麻芛</span>重新出發，揉合了日式美學與甜品製作概念，像人氣王<span style=\"color:rgb(5,5,5);\">麻芛生乳捲，用南屯麻芛，搭配細緻綿密的日式蛋糕體，選用濃郁奶香的特製麻芛生乳，最後配上酸甜感的新鮮水果，苦中帶甘，是一份會一口接一口的清爽甜點。</span></p><figure class=\"image\"><img src=\"./images/imgSingle-1657785998662.png\"></figure><p><span style=\"color:rgb(5,5,5);\">麻芛酥則是口感層次多變的特色招牌，外皮是酥脆的榛果奶油麻芛，咬下去有QQ的麻糬，伴隨會流湯汁的地瓜流沙餡，讓味蕾多重享受！</span></p><figure class=\"image\"><img src=\"./images/imgSingle-1657786016051.png\"></figure><p><span style=\"color:rgb(5,5,5);\">青子還有個隱藏版菜單，母親節推出的</span>「麻芛水果奶油蛋糕」，中間的蛋糕餡夾入新鮮哈密瓜、Q軟乳酪餡、甜點師特製的麻芛奶油餡，蛋糕體充滿豐富的蛋香跟麵粉香，吃起來帶著淡淡的麻芛苦味，苦中帶甘，一如母親養育我們長大的滋味。這麼有特色的蛋糕，不知道媽媽生日可不可比照預訂呢？試試看，事先跟青子詢問看看喔！</p><p>&nbsp;</p><p><span style=\"background-color:white;color:rgb(5,5,5);\">店家資訊｜青子</span></p><p><span style=\"background-color:white;color:rgb(5,5,5);\">地址：</span><span style=\"background-color:white;color:rgb(32,33,36);\">408南屯區南光路48號</span></p><p><span style=\"background-color:white;color:rgb(5,5,5);\">電話：</span> 0970718150</p><p><span style=\"background-color:white;color:rgb(5,5,5);\">營業時間：1200-2000</span></p><p><span style=\"background-color:white;color:rgb(5,5,5);\">官網：</span><a href=\"https://aoko.tw/\"><span style=\"background-color:white;color:rgb(5,5,5);\"><u>https://aoko.tw</u></span></a></p><p><span style=\"background-color:white;color:rgb(5,5,5);\">臉書：</span><a href=\"https://www.facebook.com/aokotc/\"><span style=\"background-color:white;color:rgb(5,5,5);\"><u>https://www.facebook.com/aokotc/</u></span></a></p><p>&nbsp;</p><p><span style=\"background-color:white;color:rgb(5,5,5);\">圖片來源｜</span></p><p><span style=\"background-color:white;color:rgb(5,5,5);\">林金生香FB,IG</span></p><p><span style=\"background-color:white;color:rgb(5,5,5);\">青子FB</span></p><p><span style=\"background-color:white;color:rgb(5,5,5);\">&nbsp;</span></p><p>&nbsp;</p>","subText":"最近在台中巷弄間、揹著包包的年輕人詢問的熱門話題，「那個麻芛冰茶、麻芛生乳捲要去哪裡買？」IG、LINE的美照分享，一張張都是透著淺綠、蘋果綠、葉綠色的神秘汁、神秘甜點。對外地人而言，它是不可思議的口味....","startDate":"2022-07-13T16:00:00.000Z","authorName":"Sunny","imgSqu":"./images/imgSingle-1657785590250.png","imgRec":"./images/imgSingle-1657785596401.png","chLocation":"lifeC","chFront":"./images/imgSingle-1657786145795.jpg","chStatus":1,"homeFront":"./images/imgSingle-1657786152104.jpg","homeStatus":1,"link":null}],"pagination":{"pageNum":"1","pageSize":"3","totalPage":3,"total":29}}