{"result":[{"articleId":451,"imgId":451,"channelId":"5","channelName":"醫療","mainTitle":"全球發燒熱爆！世衛示警死亡人數攀升","mainText":"<p>今年大暑（7月24日）花蓮創下40.4℃的高溫紀錄，新北市鶯歌39.5℃，板橋測得39.4℃，突破20年來最高溫紀錄。全台烤蕃薯，大家熱到受不了，而這波熱浪危機正席捲全球！歐洲多國高溫超過45℃，引發多起大規模野火，高溫造成的傷害光在西班牙和葡萄牙已超過1700人身亡，聯合國日前警告，熱浪將會越來越頻繁，而且至少會持續到2060年。</p><figure class=\"image\"><img src=\"https://news-age.s3.ap-northeast-1.amazonaws.com/myUploadFile/imgSingle-1658727582573.jpg\"></figure><p>圖/過度乾熱，造成美國加州森林大火</p><figure class=\"image\"><img src=\"https://news-age.s3.ap-northeast-1.amazonaws.com/myUploadFile/imgSingle-1658727585965.jpg\"></figure><p>圖/希臘海島也因為熱浪襲擊，野火不斷，包括法國、西班牙、葡萄牙、義大利都傳出多起森林大火</p><figure class=\"image\"><img src=\"https://news-age.s3.ap-northeast-1.amazonaws.com/myUploadFile/imgSingle-1658727865502.jpg\"></figure><p>歐洲和美國今夏遭遇嚴重熱浪侵襲，法國64個地區均創破紀錄高溫，圖為7月19日，在巴黎街頭測得44℃，據《法新社》報導，世衛歐洲區域辦事處主任克魯格（Hans Kluge）發表聲明表示，過去數十年來，已有數十萬人因極端高溫而喪命，「今年這波熱浪，光在西班牙和葡萄牙已造成超過1700人身亡。」克魯格表示，<span style=\"color:red;\">預料死於熱浪的人數還會進一步攀升</span>。</p><figure class=\"image\"><img src=\"https://news-age.s3.ap-northeast-1.amazonaws.com/myUploadFile/imgSingle-1658727596457.jpg\"></figure><p>圖/英國小孩在戶外運動遭曬傷</p><p>&nbsp;</p><p>克魯格的示警，不只是因為高溫直接對人體造成熱傷害，歐盟執委會旗下聯合研究中心（JRC）日前也警告，歐盟境內近半土地河川湖泊正面臨乾旱風險。這份最新報告指出，歐盟領域中有46%處於乾旱預警級別，有11%處於警戒級別，即當地作物已面臨缺水問題。</p><figure class=\"image\"><img src=\"https://news-age.s3.ap-northeast-1.amazonaws.com/myUploadFile/imgSingle-1658727619356.jpg\"></figure><p>其中義大利北部波河（Po River）流域今年面臨最嚴重程度的乾旱，法國、羅馬尼亞、西班牙、葡萄牙及義大利作物產量減少。瑞士多數地區水資源已短缺，當局已紛紛祭出限水令，禁止居民取用河水、洗車或開灑水器。</p><p>&nbsp;</p><p>德國官方研究報告則顯示，自2018年起，氣候變遷引起的天災，已使德國蒙受至少800億歐元（約817億美元）損失。</p><figure class=\"image\"><img src=\"https://news-age.s3.ap-northeast-1.amazonaws.com/myUploadFile/imgSingle-1658727631477.jpg\"></figure><p>圖/高溫致使農作物灼傷</p><p>&nbsp;</p><p><span style=\"color:red;\">高溫下的威脅，還包括農作物受損，導致糧食危機</span>，根據路透社的報導，科學家指出，除了人類燃燒化石燃料導致氣候變遷，北極暖化、噴射氣流遷移、熱穹現象也都是發生熱浪主因。</p><p>&nbsp;</p><p>●<strong>北極暖化和噴射氣流遷移</strong></p><p>北極正以較整個地球快3到4倍速度暖化，意味北方氣溫與近赤道地區氣溫差異愈來愈小。這會導致北極噴射氣流擺動，而造成熱浪、洪水等極端天氣事件。</p><p><strong>●熱穹現象</strong></p><p>所謂的熱穹現象，來自於海洋溫度升高，將熱空氣困在大面積地區內，科學家研究發現，前一個冬季，熱帶太平洋地區的海水溫度由西至東急遽變化，盛行風將熱空氣往東吹向陸地，造成美國七月中旬從奧克拉荷馬州（Oklahoma）和阿肯色州（Arkansas）南部平原一帶，一路延伸東部沿海地區，都籠罩在熱穹現象中。</p><p>●<strong>人類影響氣候變遷</strong></p><p>科學家指出，燃燒化石燃料導致氣候變遷，無可否認，這是當前最迫切也是人類可以用行動減緩的威脅。</p><p>加州大學洛杉磯分校（UCLA）氣候科學家史文（Daniel Swain）說：「氣候變遷使得極端、史無前例高溫事件不但更強烈也更常見，而且對全球各地而言幾乎都會很普遍。」</p><figure class=\"image\"><img src=\"https://news-age.s3.ap-northeast-1.amazonaws.com/myUploadFile/imgSingle-1658727658828.jpg\"></figure><p>圖/巴基斯坦志工為路上行人提供「澆頭」服務，避免熱傷害</p><p>&nbsp;</p><p>審視科學家所提出的極端氣候問題後，再回頭看看政府的對應政策，全球有三個減碳目標，第一個是巴黎協定，各國承諾的減碳目標（政策目標）；第二個是聯合國永續發展目標的減碳目標（永續目標）；第三個是各國紛紛祭出的「2050年淨零」（無碳目標）。</p><p>&nbsp;</p><p>而台灣最近討論度最高的校園全數裝冷氣補助方案，看似是解決高溫熱傷害的最快解方，卻也引起環保團體的質疑，致力於綠耕改造環境的共好生活合作社，理事長馮雅蕾於臉書發文表示，「<span style=\"color:rgb(5,5,5);\">斥資23億美元，高達台幣693億元的氣候緊急應變計畫中，撥出3.85億美元補貼買冷氣？然後增加更多能源消耗和溫室氣體？」</span></p><p>&nbsp;</p><p><span style=\"color:rgb(5,5,5);\">馮雅蕾認為用製造問題的方式去解決問題會造成更大傷害，不如將3.85億美元拿來補助家庭、社區、學校安裝雨水系統、屋頂農耕、社區農場、校園碳耕，教育人人都能因應未來氣候問題的生活方式，或許可以在有限時間內達到減緩暖化的有效行動。</span></p><p>&nbsp;</p><p><span style=\"color:rgb(5,5,5);\">這樣的建議，其實是個長遠的計劃，成效不如冷氣一開，馬上舒適不流汗來得快，但卻可避免大量冷氣機背後的隱憂，包括熱排放、用電能源消耗可能造成長遠性更難解決的環境傷害。</span></p><figure class=\"image\"><img src=\"https://news-age.s3.ap-northeast-1.amazonaws.com/myUploadFile/imgSingle-1658727920679.jpg\"></figure><p><span style=\"color:rgb(5,5,5);\">想像一個畫面，未來夏季人們只能躲在冷氣房內，因為大量冷氣機所排放的溫室氣體讓環境高溫更嚴重了，而無法躲進冷氣房的動植物將面臨更嚴苛的存活條件，一旦動植物被熱死，接踵而來的不僅是糧食危機，生態平衡遭破壞，人類又如何獨自安然於冷氣房中？</span></p><p>&nbsp;</p><p><span style=\"color:rgb(5,5,5);\">這些難以數據化被看見的危機，其實是環保團體最擔心的，綠色能源的政策是否往對的方向，有效減緩氣候變遷所造成的傷害？</span></p><p>&nbsp;</p><p>&nbsp;</p>","subText":"今年大暑（7月24日）花蓮創下40.4℃的高溫紀錄，全台烤蕃薯，而這波熱浪危機正席捲全球！歐洲多國高溫超過45℃，高溫造成的傷害光在西班牙和葡萄牙已超過1700人身亡，聯合國日前警告，熱浪將會越來越頻繁，而且至少會持續到2060年。","startDate":"2022-07-24T16:00:00.000Z","authorName":"Sunny","imgSqu":"https://news-age.s3.amazonaws.com/myUploadFile/imgSingle-1658726799316.png","imgRec":"https://news-age.s3.ap-northeast-1.amazonaws.com/myUploadFile/imgSingle-1658726806940.png","chLocation":"medicalB_1","chFront":"https://news-age.s3.ap-northeast-1.amazonaws.com/myUploadFile/imgSingle-1658726829149.jpg","chStatus":1,"homeFront":"https://news-age.s3.ap-northeast-1.amazonaws.com/myUploadFile/imgSingle-1658726822211.jpg","homeStatus":1,"link":null},{"articleId":446,"imgId":446,"channelId":"5","channelName":"醫療","mainTitle":"染疫孕婦生產大作戰 中榮傳授成功經驗","mainText":"<p>孕婦產前染疫會有什麼風險？該怎麼辦？台中榮總今年5月到6月底，已經成功為25名染疫孕婦接生，在跨團隊醫療的照護下，全數平安生產，而且寶寶全都是陰性，沒有發生併發症，但過程中其實有許多需謹慎注意的細節，孕媽咪若發現染疫該怎麼處理呢？</p><figure class=\"image\"><img src=\"https://news-age.s3.ap-northeast-1.amazonaws.com/myUploadFile/imgSingle-1657867731244.jpg\"></figure><p>圖/陳姓產婦（左三）出席台中榮總醫療團隊的記者會</p><p>&nbsp;</p><p>「我在生產前一天出現喉嚨痛、疑似感冒的症狀，隔天起床發燒，到台中榮總急診PCR驗出陽性確診，當下有點慌，因為我肚子開始痛了…」陳姓產婦回想產前染疫的經驗，直說自己好幸運，遇到醫護團隊細心的照護、當她最強的後盾和指導者。</p><p>&nbsp;</p><p>台中榮總婦女醫學部醫師陳威志說，陳姓孕婦<strong>因染疫因素，無法施打減痛分娩</strong>，陳小姐於第一產程時，不自主地用力，造成子宮頸裂傷。所幸醫護人員有動力濾淨式呼吸防護具的協助，保持良好通氣及視野，在最短時間內完成會陰傷口跟子宮頸裂傷的修補，減少產婦的出血。</p><p>&nbsp;</p><p>當時陳姓產婦的Ct值高達13，傳染力極高，6名醫護人員穿著防護裝備，將產婦轉至負壓隔離手術室接生。因自然產，產婦恢復狀況良好，產後第二天完成新冠肺炎抗病毒藥物治療後，即返家隔離。</p><p>&nbsp;</p><p>「在適當條件下，染疫孕婦是可以進行自然產。」陳威志醫師說，<strong>染疫之孕婦無法被施打減痛分娩，所以待產過程的產痛控制又是另一大考驗。此外，仍須綜合考量到染疫孕婦心肺負荷、疼痛控制及有限的醫療量能。</strong></p><p>&nbsp;</p><p>台中榮總接生團隊為因應COVID-19疫情，皆有制定相關配套處理流程，並設立孕產婦急診檢傷快速通道及產房負壓手術室，讓所有孕婦安心生產。</p><figure class=\"image\"><img src=\"https://news-age.s3.ap-northeast-1.amazonaws.com/myUploadFile/imgSingle-1657867785005.jpg\"></figure><p>&nbsp;</p><p>當然，新冠肺炎對於孕婦影響症狀和其他患者相似。大約九成的感染者為輕症，且大多數無症狀，而有症狀者大多呈現類似輕微感冒，如喉嚨痛、咳嗽、發燒、肌肉痠痛、鼻塞等。</p><p>&nbsp;</p><p>但由於懷孕時的生理變化，如免疫、凝血系統的改變，心肺功能負擔的增加，<strong>有較高的機率演變成重症。</strong></p><p>包括增加3倍幾率進入加護病房</p><p>增加2.9倍使用呼吸器</p><p>增加1.7倍死亡的風險</p><p>&nbsp;</p><p>尤其是已知懷孕婦女合併過去病史 (例如糖尿病、肥胖、高齡和心血管疾病)會更加劇新冠肺炎併發症的發生。對於<strong>中重症之孕婦，除增加母體併發症外，胎兒也會受其影響</strong>，其中包括早產、胎兒生長遲滯、胎死腹中及增加新生兒之罹病率。</p><p>&nbsp;</p><p>除此，極少數確診孕婦的羊水、胎盤、新生兒咽喉拭子與母乳中曾藉由 PCR&nbsp;檢出病毒，也有確診孕婦的寶寶於出生 24&nbsp;小時內即為新冠肺炎PCR&nbsp;陽性，<strong>新生兒可能於子宮內、產程中，或產後接觸而感染新冠肺炎。</strong></p><p>&nbsp;</p><p>目前證據顯示，<strong>新冠肺炎陽性產婦的新生兒，出生 1–3&nbsp;天內新冠肺炎PCR&nbsp;檢驗陽性之比率約為1.6~2%。</strong></p><p>&nbsp;</p><p>台中榮民總醫院提醒，染疫孕婦居家隔離期間，務必密切觀察自身症狀，若出現以下警戒症狀應立即就醫：</p><p>意識變化、靜止下心跳仍過速(≥ 120bpm)、呼吸困難、急促、喘鳴聲、發紺、持續胸痛/胸悶、咳血、下肢異常壓痛及明顯腫脹、嚴重脫水、少尿、營養不良、皮膚非創傷性多處瘀斑、高燒≥39℃且超過 48小時，嚴重的其他症狀</p><p>&nbsp;</p><p>台中榮總24小時產房諮詢專線電話 23592525-8136。</p><p>&nbsp;</p>","subText":"「我在生產前一天出現喉嚨痛、疑似感冒的症狀，隔天起床發燒...」媽媽經歷最恐慌也最喜悅的一天，台中榮總如何為25名染疫孕婦平安接生，寶寶全數沒有受到感染？","startDate":"2022-07-14T16:00:00.000Z","authorName":"Sunny","imgSqu":"https://news-age.s3.ap-northeast-1.amazonaws.com/myUploadFile/imgSingle-1657867999962.png","imgRec":"https://news-age.s3.ap-northeast-1.amazonaws.com/myUploadFile/imgSingle-1657868007680.png","chLocation":"medicalB_4","chFront":null,"chStatus":0,"homeFront":null,"homeStatus":0,"link":null},{"articleId":438,"imgId":438,"channelId":"5","channelName":"醫療","mainTitle":"歌手朱俐靜病逝 哪些人是乳癌高風險族群","mainText":"<p>從《超級偶像》出道的歌手朱俐靜，2年前診斷罹患乳癌，抗癌2年仍不敵病魔，7月3日逝世，享年40歲。台中榮總乳房腫瘤外科主任洪志強醫師呼籲，乳癌佔台灣女性癌症第一名，幾類高風險族群一定要定期篩檢，早期發現早期治療，是避免惡化危害生命的唯一方式。</p><p>&nbsp;</p><figure class=\"image\"><img src=\"https://news-age.s3.ap-northeast-1.amazonaws.com/myUploadFile/imgSingle-1657003995374.png\"></figure><p><span style=\"color:hsl(0, 0%, 30%);\"><i>圖/&nbsp;鏡頭前朱俐靜總是樂觀開朗（翻攝自朱俐靜臉書）</i></span></p><p>&nbsp;</p><p>朱俐靜的家人透過她的臉書發表聲明，朱俐靜走得平靜，對於工作、對於生活，她始終非常努力，用音樂帶給大家滿滿正能量，今年三月，她參加勵馨基金會的百大名人公益活動，將自己的衣服捐出去；沒多久，臉書po出一張在醫院吊點滴的照片，沒多說什麼，只喊話「加油」。臉書和IG自從4月23日以後，將近3個月沒有更新，再看見，卻已是家人為她代po離世的消息。</p><p>&nbsp;</p><figure class=\"image\"><img src=\"https://news-age.s3.ap-northeast-1.amazonaws.com/myUploadFile/imgSingle-1657004055977.png\"></figure><p>&nbsp;</p><p>朱俐靜2021年初在發片記者會上，曾宣布自己在2020年罹患乳癌，但她保持樂觀心態，一邊繼續工作一邊接受治療，她曾透露，當時得知自己罹患乳癌時，將自己的銀行帳號密碼傳簡訊告知姊姊，「錢生不帶來死不帶去，總是有人要花。」</p><p>&nbsp;</p><p>而她的母親多年前罹患神經內分泌癌病逝，她説母親很養生且注意飲食，罹癌短短3個月，都來不及交代遺言就過世，「人生只有一次，要好好珍惜」。朱俐靜當時說，音樂是她的動力來源，她渴望將自己的作品留下來，做好專輯，「例如幾首歌，最後的聲音、想要講的話，如果做完就沒有太大的遺憾。」如今回頭看朱俐靜的這段話，讓許多歌迷感到不捨。</p><figure class=\"image\"><img src=\"https://news-age.s3.ap-northeast-1.amazonaws.com/myUploadFile/imgSingle-1657004036494.png\"></figure><p><span style=\"color:hsl(0, 0%, 30%);\"><i>圖/朱俐靜在臉書分享生活 總是笑容滿面（翻攝自朱俐靜臉書）</i></span></p><p>&nbsp;</p><p>乳癌是台灣女性癌症的第一名，但年輕女性不一定是死亡的高風險族群，台中榮總乳房腫瘤外科主任洪志強醫師強調，早期發現的存活率，0-2期超過九成以上，3期存活率也有八成，最怕高風險族群沒有定期篩檢、自我檢查而延誤就醫。</p><p><img src=\"https://news-age.s3.ap-northeast-1.amazonaws.com/myUploadFile/imgSingle-1657003780991.png\"></p><p><span style=\"color:hsl(0, 0%, 30%);\">圖/&nbsp;衛福部統計</span></p><p>&nbsp;</p><p>洪志強醫師表示，乳癌跟賀爾蒙有關，初經愈早停經愈晚、曾吃過相關賀爾蒙的藥物或東西、30歲前沒有生育、及有家族病史的女性，相對風險性較高，後天危險因子則包含抽菸、飲酒、不健康飲食及缺乏運動等。另外，45-69歲是發現的高峰期，國健署因此提供每二年一次的乳房攝影篩檢。</p><p>&nbsp;</p><p>若是定期篩檢，發現的乳癌有2-3成機率是0期，若無定期檢查發現時往往已經2-3期，洪志強醫師說，因為乳房的硬塊要大到1.5-2公分才摸得到，因此靠觸摸自我檢查，還是有可能延誤。</p><p>&nbsp;</p><p>至於年輕女性罹患乳癌的數量是不是愈來愈多？洪志強醫師說，的確有這樣的趨勢，但不是因為年齡層往下發展，而是女性罹患乳癌的數量整體往上增加，風險最高的年紀仍以45-69歲為主，只是年輕女性有的發現較晚，或是沒有積極治療，而錯失治癒的機會。</p><p>&nbsp;</p><p>&nbsp;</p>","subText":"從《超級偶像》出道的歌手朱俐靜，2年前診斷罹患乳癌，抗癌2年仍不敵病魔，7月3日逝世，享年40歲。台中榮總乳房腫瘤外科主任洪志強醫師呼籲，乳癌佔台灣女性癌症第一名，幾類高風險族群一定要定期篩檢....","startDate":"2022-07-04T16:00:00.000Z","authorName":"Sunny","imgSqu":"https://news-age.s3.ap-northeast-1.amazonaws.com/myUploadFile/imgSingle-1657003873630.png","imgRec":"https://news-age.s3.ap-northeast-1.amazonaws.com/myUploadFile/imgSingle-1657003886566.png","chLocation":"medicalB_1","chFront":"https://news-age.s3.ap-northeast-1.amazonaws.com/myUploadFile/imgSingle-1657003956048.jpg","chStatus":1,"homeFront":"https://news-age.s3.ap-northeast-1.amazonaws.com/myUploadFile/imgSingle-1657003960415.jpg","homeStatus":1,"link":null},{"articleId":434,"imgId":434,"channelId":"5","channelName":"醫療","mainTitle":"兒童後新冠怎麼治？ DISCOVERY計畫追蹤照護","mainText":"<p>台中市的家長問，孩子新冠確診後一個月，還是有怪怪的症狀該怎麼辦？中國醫大兒童醫院特別整合10個次專科，成立DISCOVERY照護計畫，專門針對有疑似後新冠、長新冠的孩子跨科治療，只要填寫兒童新冠疾病後身心整合評估問卷，醫師會依據症狀開立相關檢查，提供孩子完整身心照護、必要時長期追蹤治療。</p><p><img src=\"https://news-age.s3.amazonaws.com/myUploadFile/imgSingle-1656654259405.jpeg\" alt=\"一張含有 個人, 女孩, 年輕, 小 的圖片\n\n自動產生的描述\"></p><p>根據國外確診模組率推估，台中市預計會有50萬人感染新冠，目前累計人數已超過41萬，其中20%為小於20歲的青少年和幼童，根據國外資料顯示，最高有30%的染疫孩童青少年會有後/長新冠感染的慢性後遺症，所以面對這波Omicron疫情，<strong>台中市推估將有2-3萬後/長新冠兒童青少年族群，需要兒童後新冠特別門診的整合照護。</strong></p><p>&nbsp;</p><p>中國醫大兒童醫院特別成立DISCOVERY照護計畫，這項計畫有哪些重要性和便利性？</p><ul><li>中醫大兒童醫院是專為兒童而設的頂尖醫院，具備醫學中心和中西醫跨科資源。</li><li>DISCOVERY照護計畫由院長王志堯整合10個次專科，結合兒童感染科、兒童神經科、兒童心臟科、兒童胸腔科、兒童肝膽腸胃科、兒童青少年心智科、兒童過敏免疫風濕科、兒童血液腫瘤科、醫學遺傳暨兒童新陳代謝內分泌科、兒童腎臟科、新生兒科的各科專業。</li><li>家長不必到處掛號，醫師可為孩子跨科跨領域治療</li><li>即時幫助孩子緩解不適症狀，減輕家長焦慮</li><li>並要時可提供中西醫診療</li><li>定期追蹤孩子治療穩定性半年至一年</li><li>臨床治療資料將作為台灣研究新冠後遺症重要依據</li></ul><p>&nbsp;</p><p>中國醫大兒童醫院王志堯院長建議，孩子新冠確診後超過四週，若持續有下列症狀，爸媽要特別留意，帶孩子就醫。</p><p>後/長新冠可能症狀：</p><p>失眠、耳鳴；咳嗽、有痰；喘不過氣、胸悶胸痛、心悸；昏昏欲睡、全身無力、容易疲倦；注意力不集中、記憶力變差、腦霧；長疹子、過敏；頭暈、頭痛；肌肉關節疼痛；嗅味覺改變、噁心嘔吐等。</p><p>依照後遺症持續的時間，短期為「後新冠」，超過3個月稱為「長新冠」。</p><p>&nbsp;</p><p>目前醫界對於新冠病毒在確診一週後會不會殘留體內仍看法分歧，確定的是，病毒會影響身體內不同的部位，包括神經系統、免疫系統、腸胃道、心臟、肺臟、肝臟、腎臟等，甚至會誘發過敏兒的過敏症狀更嚴重，因無法歸類於一個專科，因此跨科別診療及追蹤特別重要。也藉著臨床案例的搜集，提供更精準的研究。</p><p><img src=\"https://news-age.s3.ap-northeast-1.amazonaws.com/myUploadFile/imgSingle-1656654260181.png\" alt=\"一張含有 文字, 個人, 男人, 直立的 的圖片\n\n自動產生的描述\"></p><p>圖/中醫大兒童醫院院長 王志堯</p><p>&nbsp;</p><p>王志堯院長專長過敏免疫的研究治療，疫情期間，他帶領過敏免疫及微菌叢研究中心（AIM Center），以免疫基礎研究找到阻止病毒感染侵入宿主細胞的肺泡表面蛋白D的片段rfhSP-D，獲得第十八屆國家新創獎肯定，並已申請美國臨時專利，未來更將積極發展其臨床應用。</p><p>&nbsp;</p><p>該中心已通過世界過敏組織WAO（World Allergy Organization）卓越中心認證，成為華人地區第一個通過認證的醫療研究單位，取得認證代表AIM中心具備完整的過敏免疫研究與治療經驗，將負起協助WAO在台灣推廣過敏性疾病防治之重要責任。</p><p>&nbsp;</p><p>中醫大兒童醫院啟動DISCOVERY後新冠兒童診治及照護計畫，緩解孩子的症狀之外，也由於台灣缺乏長期的新冠追蹤研究，因此積極進行多項兒童新冠疾病相關的臨床及基礎研究，並展開台灣長期性流行病研究，期望能造福新冠疾病病童及家庭。</p><p>&nbsp;</p>","subText":"台中市的家長問，孩子新冠確診後一個月，還是有怪怪的症狀該怎麼辦？中國醫大兒童醫院特別整合10個次專科，成立DISCOVERY照護計畫，專門針對有疑似後新冠、長新冠的孩子跨科治療，必要時長期追蹤治療。","startDate":"2022-06-30T16:00:00.000Z","authorName":"Sunny","imgSqu":"https://news-age.s3.ap-northeast-1.amazonaws.com/myUploadFile/imgSingle-1656654398547.png","imgRec":"https://news-age.s3.ap-northeast-1.amazonaws.com/myUploadFile/imgSingle-1656654406839.png","chLocation":"medicalA","chFront":null,"chStatus":0,"homeFront":null,"homeStatus":0,"link":null},{"articleId":431,"imgId":431,"channelId":"5","channelName":"醫療","mainTitle":"騎車“犁田”破皮 小黑點害她差點截肢","mainText":"<p>現年30歲的王小姐在三年前半夜騎機車，因一時閃神，連人帶車摔落田裡，右膝受到嚴重撕裂傷，送醫時整個傷口都沾滿泥巴。經過常規清創縫合後，傷口不如預期中逐漸恢復，反而開始潰爛化膿，嚴重到醫師建議她接受截肢手術，轉至中國附醫整形外科，醫師從顯微鏡發現是「小黑點」作祟，靠著顯微手術不但保住她的右腳，也終結王小姐三年多來的惡夢。</p><p>&nbsp;</p><p>王小姐的經歷可作為機車族的借鏡！她騎車不小心摔進田裡，沒有骨折，但右膝破皮的地方沾滿泥巴，很可能就是藏在泥巴中的黴菌作祟，導致醫師依照常規清創縫合傷口後，不但沒有好轉，還潰爛疼痛惡化到醫師建議她截肢。</p><figure class=\"image\"><img src=\"https://news-age.s3.ap-northeast-1.amazonaws.com/myUploadFile/imgSingle-1656489744047.png\"></figure><p><span style=\"color:hsl(0, 0%, 30%);\"><i>清創縫合傷口後，因黴菌感染潰爛疼痛範圍愈來愈大/圖 中國醫大附醫提供</i></span></p><p>王小姐轉到中國附醫整形外科，做了三年高達40次清創手術治療，感染科醫師同時使用了所有種類的抗黴菌藥物，包括由國外引進的抗黴菌藥物，還是無法殺死右下肢黴菌，傷口仍持續引起疼痛，他們發現按照外科教科書上的大範圍切除，甚至使用皮瓣手術都不能解決如此嚴重、困難的傷口感染問題。最後求助中國附醫國際醫療中心院長陳宏基。</p><p>&nbsp;</p><figure class=\"image\"><img src=\"https://news-age.s3.ap-northeast-1.amazonaws.com/myUploadFile/imgSingle-1656489564018.png\"></figure><p><strong>陳宏基醫師</strong></p><p><strong>現任中國醫藥大學附設醫院國際醫療中心院長</strong></p><p><strong>專長｜高難度的重建手術</strong></p><p><strong>以腸道重建咽喉、食道、陰道或尿道、肢體重建、淋巴組織重建等</strong></p><p>&nbsp;</p><p>陳宏基院長指導他的團隊用顯微鏡檢查傷口，並將倍率調到最高，發現傷口裡面有很多看似正常的組織，卻藏著不該存在的小黑點，傷口微生物培養顯示並非一般的細菌感染，而是罕見的黴菌菌絲（Scopulariopsis Brevicaulis），顏色呈淡棕色，單株直徑約5～8微米。</p><p><img src=\"https://news-age.s3.ap-northeast-1.amazonaws.com/myUploadFile/imgSingle-1656489776473.jpg\"></p><p>陳宏基醫師與醫療團隊最後選擇採用顯微技術為病人清除病原體，耗費數小時才將傷口上的黴菌孢子一一剝除。兩個月後，微生物培養已找不到黴菌，病人的傷口也完全復原，組織重建工作得以圓滿完成；三個月後，病人已經可以正常行走並開始工作，甚至可以自信地穿著短褲在外走動。</p><p>&nbsp;</p><figure class=\"image\"><img src=\"https://news-age.s3.ap-northeast-1.amazonaws.com/myUploadFile/imgSingle-1656489806928.png\"></figure><p><span style=\"color:hsl(0, 0%, 30%);\"><i>陳宏基醫師（右二）與團隊和病患合照/圖 中國醫大附醫提供</i></span></p><p>&nbsp;</p><p>不只保住王小姐的右腳，陳宏基醫師最近也協助一名罹患下咽癌，切除全喉無法說話、進食的患者，重建聲帶與消化道。</p><p>&nbsp;</p><p>患者王先生之前依照醫療常規接受了全喉切除手術，照理說，這樣的患者完全無法進食與說話，陳宏基醫師憑著數十年的手術經驗，獨創了「游離迴盲瓣（Free Ileo-colon Flap）」同時建立自然的聲音與穩定的消化道，可利用將迴盲瓣及段迴腸移植至頸部，用來重建新的聲帶。</p><p>&nbsp;</p><p>已經切除全喉的王先生究受「自體腸道移植重建聲帶」手術後，不僅能順利進食、恢復說話，甚至還能唱唱簡單的歌，享受含飴弄孫之樂。近五年來，陳宏基醫師為了幫助與改良重建病人語音功能，在使用腸道移植重建發聲器的時候，加上自主神經與頸叢神經的吻合，可把本來不受控制的平滑肌變成可受控制的肌肉，藉此有效改善語音功能，成功開創了以往未見的治療新方法，造福病人。</p><p>&nbsp;</p><p>陳宏基醫師指出，這類手術可運用於其他如喉部創傷、頸部腫瘤、放療後喉損傷、腐蝕性液體傷害等適應症。有助於患者恢復日常的溝通與進食，提升生活品質，讓身心更健康。</p>","subText":"【名醫醫療新知】王小姐三年前騎機車，連人帶車摔落田裡，右膝受到嚴重撕裂傷，送醫時整個傷口都沾滿泥巴。經過常規清創縫合後，傷口不如預期中逐漸恢復，反而開始潰爛化膿，嚴重到醫師建議她截肢...","startDate":"2022-06-28T16:00:00.000Z","authorName":"Sunny","imgSqu":"https://news-age.s3.ap-northeast-1.amazonaws.com/myUploadFile/imgSingle-1656488897077.png","imgRec":"https://news-age.s3.ap-northeast-1.amazonaws.com/myUploadFile/imgSingle-1656488918752.png","chLocation":"medicalB_2","chFront":null,"chStatus":0,"homeFront":null,"homeStatus":0,"link":null},{"articleId":426,"imgId":426,"channelId":"5","channelName":"醫療","mainTitle":"新冠過半死者細菌感染 中榮研究發現抗藥基因","mainText":"<p>新冠肺炎疫情席捲全球，持續延燒。國外統計與研究指出，新冠肺炎病毒的感染者中，常可發現合併細菌性感染症。其中更有文獻指出，超過一半的死亡案例有合併細菌感染，其中不乏具有多重抗藥性的細菌。</p><p>&nbsp;</p><p>一位中年男性罹患新冠肺炎重症，因病情惡化轉診至台中榮總治療。在診治過程中，發現病人合併血流感染吲哚金黃桿菌 (Chryseobacterium indologenes)。且進一步檢驗顯示此細菌具多重抗藥性。中榮團隊立即在第一時間投予有效抗生素治療。在醫療團隊的細心照護之下，這位新冠重症合併多重抗藥性細菌感染的病患，順利康復出院。</p><p>&nbsp;</p><p>台中榮總感染科團隊表示，產吲哚金黃桿菌(Chryseobacterium indologenes)的感染，常出現在免疫功能不全或是使用醫療導管儀器的病患身上，是近年來日益常見的新興菌種。此外，金黃桿菌屬的細菌天生帶有抗藥基因，對多種抗生素有抗藥性，因此處理起來格外棘手。</p><figure class=\"image\"><img src=\"https://news-age.s3.amazonaws.com/myUploadFile/imgSingle-1655956625227.jpg\"></figure><p>中榮感染科團隊對此病患分離出的產吲哚金黃桿菌菌株，以第三代定序技術即時進行全基因體定序。發現這個血流感染的細菌同時具有三個β-內醯胺酶(β-lactamases)抗藥基因。感染科團隊指出，β-內醯胺酶抗藥基因是常見造成細菌抗藥性的原因。此外，在此多重抗藥性菌株身上的三個β-內醯胺酶抗藥基因當中，也發現未曾在此菌種上報告過的blaCcrA抗藥基因。此研究成果也於2022年1月份發表於國際期刊 《Infection and Drug Resistance》。</p><p>&nbsp;&nbsp;</p><p>抗微生物藥物抗藥性(Antimicrobial resistance, AMR)近年為全球矚目的公共衛生議題，如今與新冠肺炎疫情匯流，病毒與多重抗藥性細菌共同感染，對於醫療人員是一大挑戰。也是未來診治上將持續面臨的課題。第三代定序技術具有即時與長片段基因解析的特色，可以精確分析高度重複的序列或是大規模的基因結構變異，是面對微生物演化的重要工具。這項研究仍持續當中，中榮團隊將不斷精進，為台灣醫療進步持續貢獻。</p><figure class=\"image\"><img src=\"https://news-age.s3.ap-northeast-1.amazonaws.com/myUploadFile/imgSingle-1655956686842.jpeg\"></figure><p>照片(左起):內科部吳明儒主任、感染科葉庭光醫師 傅雲慶副院長、感染科劉柏瑜主任</p>","subText":"【最新研究】新冠肺炎病毒的感染者中，常可發現合併細菌性感染症。超過一半的死亡案例有合併細菌感染，其中不乏具有多重抗藥性的細菌，台中榮總團隊進行全基因體定序，發現抗藥基因....","startDate":"2022-06-22T16:00:00.000Z","authorName":"台中榮總感染科  葉庭光醫師","imgSqu":"https://news-age.s3.amazonaws.com/myUploadFile/imgSingle-1655956358220.png","imgRec":"https://news-age.s3.ap-northeast-1.amazonaws.com/myUploadFile/imgSingle-1655956378221.jpg","chLocation":"medicalB_4","chFront":null,"chStatus":0,"homeFront":null,"homeStatus":0,"link":null},{"articleId":424,"imgId":424,"channelId":"5","channelName":"醫療","mainTitle":"讓失語的失智嬤開口說話 新的醫療模式快申請","mainText":"<p>一名81歲的張奶奶，四年前罹患失智，隨著其他的慢性病病情加劇逐漸失去行為能力、無法說話，只能整日躺在床上接受照顧，二年前家屬申請居家醫療，如今張奶奶進步到恢復對談，可以和家人開玩笑、唱歌！居家醫療的過程到底做了哪些？有失智患者的家庭又要怎麼申請呢？</p><figure class=\"image\"><img src=\"https://news-age.s3.amazonaws.com/myUploadFile/imgSingle-1655882610903.jpg\"></figure><h4>&nbsp;</h4><h4><strong>失智患者家庭&nbsp;聽聽他們的醫療經驗</strong></h4><p>&nbsp;</p><p>張奶奶的女兒說，她媽媽2018年被診斷失智症，同時有三高、帕金森氏症、心臟也裝了支架，家人照顧非常吃力，有一次因發燒感染肺炎住院，出院前護理師發現他們沒有申請長照資源，很熱心地介紹個管師，協助他們申請安寧居家療護。</p><p>&nbsp;</p><p><span style=\"color:rgb(197,90,17);\">“安寧療護的理念是當疾病已無法治癒時，對病人作積極、完整的照顧。早期針對癌症病人，2009年已將末期失智症病人納入收案對象。”</span></p><p>&nbsp;</p><p>「媽媽行動不便長期臥床，過去出門看診都得大陣仗，申請居家療護後，媽媽不需到醫院，而是醫師和護理師來家裡看診，真的省去我們很多麻煩。」張奶奶的女兒說，更讓她驚奇的是，不只西醫來看診，醫院整合了各方資源，包括中醫師也來幫媽媽針灸。</p><p>&nbsp;</p><figure class=\"image\"><img src=\"https://news-age.s3.ap-northeast-1.amazonaws.com/myUploadFile/imgSingle-1655881598447.png\"></figure><p><span style=\"color:hsl(0,0%,30%);\"><i>居家療護整合醫療資源 提供病患及家屬多方需求/製圖：中國醫藥學院附設醫院</i></span></p><p>&nbsp;</p><p>經過一段中西合併療程，將近三年無法言談的張奶奶病情逐漸穩定，進步到可以清楚回答問題、主動和家人開玩笑、唱歌，讓家屬感到非常高興。</p><p>&nbsp;</p><figure class=\"image\"><img src=\"https://news-age.s3.ap-northeast-1.amazonaws.com/myUploadFile/imgSingle-1655881618775.png\"></figure><p>&nbsp;</p><p>中國醫藥大學附設醫院家庭醫學科林靖淳醫師與居家護理師林靜妤表示，中西醫居家整合照護，不僅減少病人來回醫院的不便，更是讓家屬感受到背後有個團隊的支持力量，讓照顧的路能走更穩健長遠。</p><p>&nbsp;</p><p>尤其中醫加入居家醫療照護，可協助的項目非常多：</p><figure class=\"image\"><img src=\"https://news-age.s3.ap-northeast-1.amazonaws.com/myUploadFile/imgSingle-1655881648800.png\"></figure><p>&nbsp;</p><p>針灸科醫師洪瑞鴻表示，中國醫藥學院附設醫院三年前開放中醫參與居家醫療服務，對於失智症治療有很多適用項目，只是一般都是早期介入的效果較佳，在張奶奶身上看到很好的進步讓醫護團隊更有信心。</p><figure class=\"image\"><img src=\"https://news-age.s3.ap-northeast-1.amazonaws.com/myUploadFile/imgSingle-1655881674460.jpg\"></figure><p><span style=\"color:hsl(0,0%,30%);\"><i>圖/中國醫藥大學附設醫院居家照護團隊</i></span></p><p>&nbsp;</p><h4><strong>居家療護要花大錢嗎？該怎麼申請？</strong></h4><p>&nbsp;</p><p><span style=\"color:rgb(197,90,17);\">“當病人有相關需要且經評估符合收案標準，即可以健保申請居家醫療。”</span></p><figure class=\"image\"><img src=\"https://news-age.s3.ap-northeast-1.amazonaws.com/myUploadFile/imgSingle-1655881771478.png\"></figure><p>&nbsp;</p><p><span style=\"color:black;\">台灣已進入高齡化社會，長照的需求量愈來愈多，尤其行動不便的長輩更需要居家醫療照護，</span>居家醫療服務項目包括：</p><ul><li>醫療訪視，身體評估</li><li>開立處方、藥物整合</li><li>協助管路更換</li><li>傷口照護、討論傷口敷料</li><li>調整管灌營養品</li></ul><p><span style=\"color:black;\">申請資格須經過評估，通過後的醫療照護費用多數由健保給付，但仍須收取部分負擔：</span></p><p><span style=\"color:rgb(237,125,49);\"><img src=\"https://news-age.s3.ap-northeast-1.amazonaws.com/myUploadFile/imgSingle-1655881177747.jpeg\"></span></p><p>&nbsp;</p>","subText":"一名81歲的張奶奶，四年前罹患失智，逐漸失去行為能力、無法說話，只能整日躺在床上接受照顧，如今張奶奶進步到恢復對談，可以和家人開玩笑、唱歌！醫療的過程到底做了哪些？有失智患者的家庭又要怎麼申請呢？","startDate":"2022-06-21T16:00:00.000Z","authorName":"Sunny","imgSqu":"https://news-age.s3.amazonaws.com/myUploadFile/imgSingle-1655882045036.png","imgRec":"https://news-age.s3.ap-northeast-1.amazonaws.com/myUploadFile/imgSingle-1655882053223.png","chLocation":"medicalB_2","chFront":"https://news-age.s3.ap-northeast-1.amazonaws.com/myUploadFile/imgSingle-1655884586394.jpg","chStatus":1,"homeFront":"https://news-age.s3.ap-northeast-1.amazonaws.com/myUploadFile/imgSingle-1655884603157.jpg","homeStatus":1,"link":null},{"articleId":422,"imgId":422,"channelId":"5","channelName":"醫療","mainTitle":"醫師示警: BA.4/BA.5病毒株即將影響台灣","mainText":"<p>一個綠燈和一個紅燈，顯示七月疫情危機降低、邊境再放寬的政策可能有變數！綠燈訊號為今（20）日國內本土確診數大幅下降至3萬5596例；紅燈亮起主因來自於邊境攔截17例Omicron亞型變異株BA.4及BA.5境外移入病例，累計已驗出65例BA.4、BA.5。</p><p><img src=\"https://news-age.s3.ap-northeast-1.amazonaws.com/myUploadFile/imgSingle-1655714126158.jpeg\" alt=\"一張含有 文字, 個人 的圖片\n\n自動產生的描述\"></p><p><span style=\"color:rgb(0,0,0);\">其中有一位本國籍小於十歲的兒童驗出BA.4 ，這名個案從美國入境，在唾液採檢為陽性，Ct 值 27 ，本身沒有症狀。 近期 BA.5 病毒株已造成歐洲地區、葡萄牙疫情快速回升，疫情指揮中心醫療應變組副組長羅一鈞說：「國內會嚴陣以待，但目前觀察國際上增加的趨勢從 5-10％ 範圍內增加，不像去年 Omicron 用爆炸性的增加，就算真的取代社區流行主流株，應該不會這 1-2 個月的事情。」</span><br>&nbsp;</p><h4><strong>BA.4、BA.5&nbsp;更危險的感染病毒 即將入侵台灣</strong></h4><p>&nbsp;</p><p>BA.4、BA.5為什麼成為新的威脅？中國醫藥大學附設醫院感染管控中心副院長黃高彬指出，根據國外經驗，變異株入侵國內後，案例就會增加，民眾想趁暑假出國旅遊，主要得看這兩個變異株造成的影響。</p><p>&nbsp;</p><p><img src=\"https://news-age.s3.ap-northeast-1.amazonaws.com/myUploadFile/imgSingle-1655714126171.jpeg\"></p><p>&nbsp;</p><p>台灣這一波的確診高峰大多感染Omicron的BA.2，輕症比例較高，但BA.4/BA.5更厲害的是，它的傳染力更強，免疫逃脫力道更大，也就是說，染疫過的人可能會再感染。同時，會侵犯肺部下呼吸道，要觀察引起肺炎的患者多不多，多的話就比較麻煩。</p><p>&nbsp;</p><p>黃高彬推測，BA.4/BA.5七月可能就會影響到台灣，是否會增加中重症比例？大約要觀察1個月左右。根據南非和日本的研究，目前感染BA.4/BA.5的平均嚴重度沒有比BA.1和BA.2高。</p><p>&nbsp;</p><p>不過，胸腔暨重症專科醫師黃軒則在臉書發文示警，以日本東京大學研究，從老鼠實驗中得知，BA.4/BA.5更具致病性，體重也會明顯下降、血壓降低、呼氣曲線更差，還可能會導致肺泡、支氣管嚴重發炎。「病毒看起來正在轉向回到更危險的感染形式」。</p><p><img src=\"https://news-age.s3.ap-northeast-1.amazonaws.com/myUploadFile/imgSingle-1655714126187.jpeg\" alt=\"一張含有 個人, 室內, 玻璃 的圖片\n\n自動產生的描述\"></p><p>黃軒醫師引述英國近日公布BA.4/BA.5在當地的報告：</p><p>1.&nbsp;每周新增確診病例增加至33%</p><p>2.&nbsp;醫院住院率各地醫院增加了23%~50%</p><p>3.&nbsp;佔床率上升了12%</p><p>4.&nbsp;至於死亡率呢？自從BA.4/BA.5快速增加，COVID 19的死亡率沒有下降過，英國預估，死亡會一周內再增加8%。</p><p>&nbsp;</p><h4><strong>防疫仍不能鬆懈 疫苗打到滿</strong></h4><p>&nbsp;</p><p>黃軒醫師提醒大家，除了維持口罩戴滿、勤洗手的防疫準則之外，疫苗看起來仍是目前的解方，「不用質疑，你最好能打滿到加強劑。」</p><p>&nbsp;</p><p>他指出，根據日本的研究，之前感染BA.1/BA.2患者自行產生的血清抗體，根本對BA.4/BA.5完全無效。有接種過BA.1/BA.2疫苗的人，要對抗BA.4/BA.5病毒雖仍不足，但在多劑疫苗交叉免疫反應(cross-reactivity)對抗下，勝過於完全沒有接種疫苗或自然感染所產生的抗體。</p><p><img src=\"https://news-age.s3.ap-northeast-1.amazonaws.com/myUploadFile/imgSingle-1655714126199.jpeg\" alt=\"一張含有 玩具, 牙刷, 藍色 的圖片\n\n自動產生的描述\"></p><p>為了追上病毒不斷變異的特性，莫德納目前開發出了用原始病毒株疫苗 + 變異株疫苗設計而成的「雙價疫苗」（Bivalent Vaccine），可以產生高濃度的中和抗體，對抗Omicron變種有較佳的免疫效果。</p><p>&nbsp;</p><p>研究人員發現：這些受試者接種雙價疫苗後六個月，相較於現行疫苗，體內對抗Omicron的中和抗體數值更高。目前雙價疫苗仍在進行臨床試驗階段，對象約3百人，至於什麼時候開始量產呢？估計今年秋天，雙價疫苗可能就會開始施打。</p><p>&nbsp;</p>","subText":"一個綠燈和一個紅燈，顯示七月疫情危機降低、邊境再放寬的政策可能有變數！綠燈訊號為今（20）日國內本土確診數大幅下降至3萬5596例；紅燈亮起主因來自於邊境攔截17例Omicron亞型變異株BA.4及BA.5境外移入病例","startDate":"2022-06-19T16:00:00.000Z","authorName":"Sunny","imgSqu":"https://news-age.s3.ap-northeast-1.amazonaws.com/myUploadFile/imgSingle-1655714354931.png","imgRec":"https://news-age.s3.ap-northeast-1.amazonaws.com/myUploadFile/imgSingle-1655714362895.png","chLocation":"medicalA","chFront":"https://news-age.s3.ap-northeast-1.amazonaws.com/myUploadFile/imgSingle-1655714372342.jpg","chStatus":1,"homeFront":"https://news-age.s3.ap-northeast-1.amazonaws.com/myUploadFile/imgSingle-1655714377653.jpg","homeStatus":1,"link":null},{"articleId":420,"imgId":420,"channelId":"5","channelName":"醫療","mainTitle":"吃生菜有撇步 小心避開三個踩雷點","mainText":"<p>「這個夏天我一定要穿回26吋腰的裙子！」不管你是為了減重而展開吃生菜沙拉的計畫，或是因為太熱胃口不好而改吃生菜，“生菜沙拉”絕對是夏季的熱門飲食，但你知道嗎？小黃瓜不宜生吃、光吃生菜可能變得更胖，有關生菜沙拉的「錯誤吃法」你一定要懂！</p><figure class=\"image\"><img src=\"https://news-age.s3.ap-northeast-1.amazonaws.com/myUploadFile/imgSingle-1655456476837.jpg\"></figure><p>&nbsp;</p><p><strong>踩雷點一：吃生菜減重？吃錯方法反而胖！</strong></p><p>&nbsp;</p><p>多吃蔬菜水果、避免澱粉類、油脂，許多人一想到減重飲食，生菜沙拉絕對是首選，這句話其實只對了一半。減重要補充營養素，的確可從生菜沙拉豐富的維生素、纖維質攝取，但國民健康署建議，除了蔬果之外，每人每天每公斤體重應攝取 0.8&nbsp;公克的蛋白質，全穀雜糧類如稻米、大麥，玉米、紅豆、綠豆等，每天1.5&nbsp;碗到 4&nbsp;碗。</p><p>&nbsp;</p><p>若只攝取生菜卻排除澱粉油脂類，前幾天或許可降低體重，但幾天後容易遇到卡關，怎麼減都減不掉，主要是因為缺乏熱量燃燒、基礎代謝不足，當恢復原本的飲食狀況後，反而會加速變胖。</p><p>&nbsp;</p><p>因此，想靠吃生菜沙拉減重，千萬不要餐餐吃，而且吃的時間也很重要，早上剛起床身體代謝較慢，需要豐富的營養「喚醒」身體，蛋白質、澱粉和維生素、油脂的補充有利於控制體重。晚餐是吃生菜沙拉的最佳時間，忙了一整天，到了晚上，藉著減少飲食負擔，只攝取維生素，幫助身體進入休息狀態。至於容易手腳冰冷的女生們，則可添加炒熟的菇類、辛香料如洋蔥，或是胡麻醬、堅果醬，來平衡蔬菜寒涼屬性。</p><figure class=\"image\"><img src=\"https://news-age.s3.ap-northeast-1.amazonaws.com/myUploadFile/imgSingle-1655456506142.jpg\"></figure><p>&nbsp;</p><p><strong>踩雷點二：生菜有助排便順暢？吃錯易便秘！</strong></p><p>&nbsp;</p><p>生菜含有豐富的膳食纖維，理論上有助於排便，只是便秘的人想靠吃生菜解決問題，恐怕愈吃愈難排便！因為人體內，不具備可以消化生菜的酵素纖維素酶，而是得靠腸道內的細菌，產生酵素並幫助消化，一旦便祕腸道壞菌增生、酵素不足，無法好好地消化與吸收，使得食物在腸道內逐漸腐敗，增加更多壞菌。</p><p>&nbsp;</p><p>生菜沙拉淋上橄欖油或沙拉醬的道理就在這兒，增加油脂之後膳食纖維在腸道內的蠕動更加順暢，就可以將食物殘渣帶出體外。若因減重連油脂都不加，小心會有反效果！</p><p>除了油之外，還需要充足的水分，膳食纖維有吸水的功能，適當的水分攝取，可以促進腸胃蠕動。</p><figure class=\"image\"><img src=\"https://news-age.s3.ap-northeast-1.amazonaws.com/myUploadFile/imgSingle-1655456531130.jpg\"></figure><p>&nbsp;</p><p><strong>踩雷點三：生吃小黃瓜&nbsp;維生素C跑光光</strong></p><p>&nbsp;</p><p>喜歡生菜沙拉的人，一定吃過小黃瓜切片或做成蔬果棒吧！一般人覺得生吃小黃瓜可以保留最完整的維生素Ｃ，而且脆脆的口感很新鮮，但小黃瓜含有一種維生素C分解酶－壞血酸氧化酶，它會破壞維生素C，在與其他蔬果共食時，容易破壞維生素C，因此小黃瓜不宜直接生吃。</p><p>&nbsp;</p><p>但有三個方法可輕鬆解決這個困擾：</p><ol><li>將小黃瓜用水燙過冰鎮再吃。燙過的小黃瓜其分解酶失去活力，無法分解維生素C。</li><li>吃小黃瓜搭配其他食材時，加點醋。醋可以抑制酵素活性，像油醋醬就是很好的搭配。</li><li>單獨吃完小黃瓜，隔1小時後再吃其他蔬果，也可降低小黃瓜破壞其他蔬果維生素C，只不過這樣就失去食物搭配多層次口感的樂趣，這種方式大概較適合極端健康主義者。</li></ol><p>&nbsp;</p><p><strong>吃生菜好還是熟菜好？</strong></p><p>吃生菜的優點，是將食物的全營養吃進肚子裡，不會因為加熱而流失營養素。對於減重者而言，幫助較大，因為吃生菜需要較多的咀嚼，不管是提升飽足感，還是減慢進食的速度，都有助於減重。而且研究發現，吃生菜比熟菜更能降低心血管疾病。</p><p>&nbsp;</p><p>缺點是若受到污染也很容易直接吃下肚，因此特殊族群例如癌症患者，醫師大多不建議吃生菜。另外，生菜含鉀量高，粗纖維也較多，不適合高血鉀、腸胃敏感患者食用。</p><p>&nbsp;</p><p>烹調過的熟菜適合所有人食用，而且，部分營養素例如β-胡蘿蔔素、玉米黃素、茄紅素加熱後可提升人體吸收率，但缺點是水溶性的營養素會在烹調過程中流失在湯汁裡，例如維生素C在加熱時，流失的量便高達15～55%。若想攝取同等的營養素，烹煮蔬菜準備的菜量要比生菜來得多一些。</p><p>&nbsp;</p>","subText":"「這個夏天我一定要穿回26吋腰的裙子！」不管你是為了減重而展開吃生菜沙拉的計畫，或是因為太熱胃口不好而改吃生菜，“生菜沙拉”絕對是夏季的熱門飲食，有關生菜沙拉的「錯誤吃法」你一定要懂！","startDate":"2022-06-16T16:00:00.000Z","authorName":"Sunny","imgSqu":"https://news-age.s3.amazonaws.com/myUploadFile/imgSingle-1655456418178.png","imgRec":"https://news-age.s3.ap-northeast-1.amazonaws.com/myUploadFile/imgSingle-1655456424779.png","chLocation":"medicalB_3","chFront":null,"chStatus":0,"homeFront":null,"homeStatus":0,"link":null},{"articleId":419,"imgId":419,"channelId":"5","channelName":"醫療","mainTitle":"長新冠怎麼治？ 中藥來調體","mainText":"<p>長新冠是新冠確診痊癒後，仍然有胸悶、疲倦、肺活量降低易喘的後遺症，該怎麼辦？台中市目前有１５家醫療院所開設特別門診，提供跨科別針對症狀「對症下藥」，但如果不想吃西藥想靠中藥調理可不可行呢？</p><p>&nbsp;</p><p>中國醫藥學院附設醫院中醫部最近收治許多長新冠患者，其中一名35歲國中女老師，三個月前感染新冠肺炎痊癒後，感覺胸悶，每天都很疲倦，爬樓梯一下子就喘，以前授課聲量大到不用麥克風隔壁教室也聽得到，確診痊癒後卻肺活量不足得靠麥克風授課，經中藥和食療方式調理一個多月後，長新冠的不適症狀恢復了七八成。中醫師賴香君說，這名女老師屬於肺氣不足脾肺氣虛型，依照長新冠的症狀和體質不同，她歸納四型病患，可試著用中藥調理緩解。以下是賴香君中醫師的中醫調理內容：</p><p>&nbsp;</p><figure class=\"image\"><img src=\"https://news-age.s3.ap-northeast-1.amazonaws.com/myUploadFile/imgSingle-1655276118032.png\"></figure><p>賴香君 消化內科醫師</p><p>中國醫藥大學附設醫院中醫部</p><p>&nbsp;</p><p>新冠肺炎急性感染後，人體的陰陽氣血尚未完全恢復，因而表現出各種「虛勞」病徵。常見症狀與生活建議、適用食療如下：</p><figure class=\"image\"><img src=\"https://news-age.s3.ap-northeast-1.amazonaws.com/myUploadFile/imgSingle-1655276299159.png\"></figure><p><strong>一.&nbsp; 氣陰兩虛型 </strong>（口乾眼乾，明明沒發燒卻常覺得自己發熱）</p><p>‧常見症狀：疲倦、口乾、心悸、自覺低熱</p><p>‧生活起居：忌熬夜、勿過度運動大汗出</p><p>食療：用百合、木耳、枸杞、茯苓、蓮子等</p><p>&nbsp;</p><p><strong>二.&nbsp; 肺脾氣虛型</strong></p><p>‧常見症狀：疲倦乏力、胃口不佳、胸悶腹脹、大便稀軟</p><p>‧生活起居：睡眠足、稍午休、柔和運動、避風寒</p><p>食療：用黃耆、黨參、山藥、茯苓、芡實、白扁豆、蓮子、薏苡仁、大棗等</p><p>&nbsp;</p><p><strong>三.&nbsp; 肝鬱氣滯型 </strong>（自我要求高的人常見）</p><p>‧常見症狀：憂鬱、焦慮、失眠、胸悶</p><p>‧生活起居：作息有節、緩緩深呼吸、柔和運動</p><p>食療：可飲用疏肝解鬱茶，如薰衣草、玫瑰、薄荷、陳皮、佛手等</p><p>&nbsp;</p><p><strong>四.&nbsp; 清氣不升型</strong></p><p>‧常見症狀：注意力不集中、腦霧、認知功能下降、記憶衰退</p><p>‧生活起居：勿過勞過度用力</p><p>食療：用黃耆、黨參、天麻、山藥、茯苓、蓮子、大棗等</p><p>&nbsp;</p><p>患者透過中藥調理，可早日平衡病毒感染後的人體紊亂，有助恢復健康。除此之外，也建議搭配導引復健，如八段錦、太極拳等，都是很好的方法。在後疫情時代，仍要落實戴口罩、勤洗手、不群聚，起居有節，以達到免疫平衡的健康目標。</p><figure class=\"image\"><img src=\"https://news-age.s3.ap-northeast-1.amazonaws.com/myUploadFile/imgSingle-1655276324738.jpg\"></figure><p>&nbsp;</p><p>◆長新冠的成因</p><p>長新冠（Long COVID），指的是感染新冠肺炎長期後遺症，其成因仍未完全解答，目前僅知後遺症可能來自於病毒雖從病人身體大部分器官清除，但仍潛伏在人體某些角落，比如腸道、肺部或神經系統；再者，病毒肆虐期會直接感染人體多種細胞，並引發過度活躍的免疫反應，經過一段時間急性症狀減低，但整體發炎尚未完全平復，因而造成長期後續症狀。</p><p>&nbsp;</p><p>&nbsp;◆你有長新冠嗎</p><p>• COVID-19發病後症狀持續至少兩個月</p><p>• 無法通過其他診斷來解釋不適症狀</p><p>• 常見症狀包括：疲勞（15～87％）、呼吸急促（10～71％）、胸悶（12～44％）、認知功能障礙／腦霧（30～40％）、嗅覺障礙（10～13％）以及其他會影響日常功能的症狀</p><p>&nbsp;</p><p>多數新冠肺炎感染者在2～4週內可脫離急性期，但約有30～60％的人仍具有持續症狀，其中大約有20～30％的症狀甚至比疾病早期更明顯，或在焦慮壓力下有疲倦、呼吸困難、胸悶、記憶力下降、失眠等困擾，若上述症狀持續存在2個月以上，那就可能屬於長新冠症候群患者。</p><p>&nbsp;</p>","subText":"【在地醫療新知】一名35歲國中女老師，三個月前感染新冠肺炎痊癒後，感覺胸悶，每天都很疲倦，爬樓梯一下子就喘，經中藥和食療方式調理一個多月後，長新冠的不適症狀恢復了七八成..","startDate":"2022-06-14T16:00:00.000Z","authorName":"Sunny","imgSqu":"https://news-age.s3.amazonaws.com/myUploadFile/imgSingle-1655276498261.png","imgRec":"https://news-age.s3.ap-northeast-1.amazonaws.com/myUploadFile/imgSingle-1655276504965.png","chLocation":"medicalB_2","chFront":null,"chStatus":0,"homeFront":null,"homeStatus":0,"link":null}],"pagination":{"pageNum":"1","pageSize":"10","totalPage":8,"total":80}}